{
  "data": null,
  "errors": [
    {
      "extensions": {
        "code": "FORBIDDEN"
      },
      "message": "not allowed to LIST on resource type JOB",
      "path": [
        "jobs"
      ]
    }
  ]
}
