{
  "data": null,
  "errors": [
    {
      "extensions": {
        "code": "FORBIDDEN"
      },
      "message": "not allowed to DELETE on resource type REPOSITORY",
      "path": [
        "repositoryDelete"
      ]
    }
  ]
}
