{
  "data": null,
  "errors": [
    {
      "extensions": {
        "code": "FORBIDDEN"
      },
      "message": "not allowed to CREATE on resource type REPOSITORY",
      "path": [
        "repositoryCreate"
      ]
    }
  ]
}
