{
  "data": null,
  "errors": [
    {
      "extensions": {
        "code": "FORBIDDEN"
      },
      "message": "not allowed to READ on assets in index IX00000000000000000000000001",
      "path": [
        "asset"
      ]
    }
  ]
}
