{
  "data": {
    "index": {
      "allPermissions": [
        {
          "permissions": {
            "assetCollectionOperations": [
              "LIST",
              "UPLOAD"
            ],
            "assetOperations": [
              "READ",
              "UPDATE",
              "DELETE",
              "PROCESS"
            ],
            "indexOperations": [
              "READ",
              "UPDATE",
              "DELETE",
              "CRAWL"
            ]
          },
          "subject": {
            "displayName": "Bob",
            "id": "UA00000000000000000000000001",
            "username": "bob"
          }
        }
      ],
      "assetType": "DOCUMENT",
      "fileLocations": [
        {
          "prefix": "documents/",
          "repository": {
            "name": "minio"
          },
          "type": "CRAWL"
        }
      ],
      "id": "IX00000000000000000000000001",
      "name": "documents",
      "permissions": {
        "assetCollectionOperations": [
          "LIST",
          "UPLOAD"
        ],
        "assetOperations": [
          "DELETE",
          "PROCESS",
          "READ",
          "UPDATE"
        ],
        "indexOperations": [
          "CRAWL",
          "DELETE",
          "READ",
          "UPDATE"
        ]
      },
      "rules": [
        {
          "actions": [
            {
              "config": {
                "__typename": "ProcessActionConfig",
                "action": "PROCESS",
                "params": {
                  "thumbnails": [
                    {
                      "format": "jpeg",
                      "height": 450
                    },
                    {}
                  ]
                },
                "queue": "thumbnails",
                "request": "generateThumbnails"
              },
              "description": "Generate thumbnails",
              "enabled": true,
              "id": "RA00000000000000000000000001"
            }
          ],
          "description": "Match all documents",
          "enabled": true,
          "id": "IR00000000000000000000000001",
          "inverse": false,
          "match": "(?i)\\.(doc|docx|pdf)$"
        }
      ],
      "tagKinds": []
    }
  }
}
