{
  "aggs": {
    "global": {
      "aggs": {
        "globalFilter": {
          "aggs": {
            "fileProperties_authoredAt": {
              "aggs": {
                "files": {
                  "aggs": {
                    "mainFile": {
                      "aggs": {
                        "properties": {
                          "aggs": {
                            "authoredAtTimeRanges": {
                              "aggs": {
                                "timeValueRanges": {
                                  "aggs": {
                                    "fileToAsset": {
                                      "reverse_nested": {}
                                    }
                                  },
                                  "date_range": {
                                    "field": "files.properties.timeValue",
                                    "ranges": [
                                      {
                                        "key": "today",
                                        "from": "now/d",
                                        "to": null
                                      }
                                    ],
                                    "time_zone": "UTC"
                                  }
                                }
                              },
                              "filter": {
                                "term": {
                                  "files.properties.name": "file_authoredAt"
                                }
                              }
                            }
                          },
                          "nested": {
                            "path": "files.properties"
                          }
                        }
                      },
                      "filter": {
                        "term": {
                          "files.main": true
                        }
                      }
                    }
                  },
                  "nested": {
                    "path": "files"
                  }
                }
              },
              "filter": {
                "match_all": {}
              }
            },
            "filterForTags": {
              "aggs": {
                "albums": {
                  "aggs": {
                    "assetToTag": {
                      "aggs": {
                        "tags": {
                          "aggs": {
                            "byName": {
                              "terms": {
                                "field": "tags.name.raw"
                              }
                            }
                          },
                          "filter": {
                            "term": {
                              "tags.kind": "album"
                            }
                          }
                        }
                      },
                      "nested": {
                        "path": "tags"
                      }
                    }
                  },
                  "filter": {
                    "match_all": {}
                  }
                }
              },
              "filter": {
                "match_all": {}
              }
            }
          },
          "filter": {
            "match_all": {}
          }
        }
      },
      "global": {}
    }
  }
}
