{
 "aggs": {
  "assetToTags": {
   "aggs": {
    "matchTagName": {
     "aggs": {
      "byNameAndKind": {
       "aggs": {
        "tagToAsset": {
         "reverse_nested": {}
        }
       },
       "multi_terms": {
        "terms": [
         {
          "field": "tags.name.raw"
         },
         {
          "field": "tags.kind"
         }
        ],
        "size": 10000
       }
      }
     },
     "filter": {
      "multi_match": {
       "fields": [
        "tags.name.prefix",
        "tags.name.prefix._2gram",
        "tags.name.prefix._3gram",
        "tags.name.prefix._index_prefix"
       ],
       "query": "2019",
       "type": "bool_prefix"
      }
     }
    }
   },
   "nested": {
    "path": "tags"
   }
  }
 },
 "size": 0
}
